Learning to crawl
…
Load the necessary packages and examine the data

library(sp)
library(rgdal)
library(tidyr)
library(dplyr)
library(lubridate)
library(ggplot2)

Some initial tidying of the data has been done prior to inclusion with the package dplyr was used for this process and this resulted in a tbl_df object.

data("beardedSeals")
beardedSeals

## # A tibble: 27,547 x 12
##       deployid   ptt instr           date_time  type quality latitude
##          <chr> <chr> <chr>              <time> <chr>   <chr>    <dbl>
## 1  EB2011_3002 38553  Mk10 2011-06-18 03:37:50 Argos       1   66.621
## 2  EB2011_3002 38553  Mk10 2011-06-18 03:52:17 Argos       1   66.624
## 3  EB2011_3002 38553  Mk10 2011-06-18 04:07:02 Argos       1   66.620
## 4  EB2011_3002 38553  Mk10 2011-06-18 04:09:24 Argos       1   66.610
## 5  EB2011_3002 38553  Mk10 2011-06-18 05:16:18 Argos       1   66.617
## 6  EB2011_3002 38553  Mk10 2011-06-18 05:34:01 Argos       B   66.616
## 7  EB2011_3002 38553  Mk10 2011-06-18 05:45:59 Argos       0   66.619
## 8  EB2011_3002 38553  Mk10 2011-06-18 05:51:08 Argos       1   66.618
## 9  EB2011_3002 38553  Mk10 2011-06-18 07:03:35 Argos       1   66.600
## 10 EB2011_3002 38553  Mk10 2011-06-18 07:30:14 Argos       1   66.621
## # ... with 27,537 more rows, and 5 more variables: longitude <dbl>,
## #   error_radius <dbl>, error_semimajor_axis <dbl>,
## #   error_semiminor_axis <dbl>, error_ellipse_orientation <dbl>
…
error_semimajor_axis  length of the semi-major error axis (meters)

error_semiminor_axis  length of the semi-minor error axis (meters)

error_ellipse_orientation  error ellipse orientation (degrees)

Adjust Duplicate Times

We have already confirmed that our date_time column is of class POSIXct and that the time zone is set to UTC. As was stated earlier, Argos data are known to occasionally produce records with duplicate date-time values  this dataset is no exception.

beardedSeals %>% 
  group_by(deployid,date_time) %>% 
  filter(n()>1)

## Source: local data frame [3,105 x 12]
## Groups: deployid, date_time [1,513]
## 
##       deployid   ptt instr           date_time  type quality latitude
##          <chr> <chr> <chr>              <time> <chr>   <chr>    <dbl>
## 1  EB2011_3002 38553  Mk10 2011-06-18 09:11:19 Argos       B   66.600
## 2  EB2011_3002 38553  Mk10 2011-06-18 09:11:19 Argos       0   66.601
## 3  EB2011_3002 38553  Mk10 2011-06-19 03:25:37 Argos       1   66.646
## 4  EB2011_3002 38553  Mk10 2011-06-19 03:25:37 Argos       1   66.644
## 5  EB2011_3002 38553  Mk10 2011-06-19 11:03:09 Argos       B   66.672
## 6  EB2011_3002 38553  Mk10 2011-06-19 11:03:09 Argos       B   66.636
## 7  EB2011_3002 38553  Mk10 2011-06-22 04:30:43 Argos       B   66.588
## 8  EB2011_3002 38553  Mk10 2011-06-22 04:30:43 Argos       0   66.589
## 9  EB2011_3002 38553  Mk10 2011-06-23 03:18:55 Argos       B   66.432
## 10 EB2011_3002 38553  Mk10 2011-06-23 03:18:55 Argos       B   66.441
## # ... with 3,095 more rows, and 5 more variables: longitude <dbl>,
## #   error_radius <dbl>, error_semimajor_axis <dbl>,
## #   error_semiminor_axis <dbl>, error_ellipse_orientation <dbl>
…
